{
  "symbol": {
    "man": "path://M307.2,136.533h-0.444c11.295-14.684,17.448-32.675,17.51-51.2C324.267,38.205,286.062,0,238.933,0    S153.6,38.205,153.6,85.333c0.063,18.525,6.216,36.516,17.51,51.2h-0.444c-47.105,0.056-85.277,38.228-85.333,85.333v102.4    c0,9.426,7.641,17.067,17.067,17.067h51.2V460.8c0,9.426,7.641,17.067,17.067,17.067H307.2c9.426,0,17.067-7.641,17.067-17.067    V341.333h51.2c9.426,0,17.067-7.641,17.067-17.067v-102.4C392.477,174.762,354.305,136.59,307.2,136.533z M238.933,34.133    c28.277,0,51.2,22.923,51.2,51.2s-22.923,51.2-51.2,51.2s-51.2-22.923-51.2-51.2S210.656,34.133,238.933,34.133z M358.4,307.2    h-34.133v-68.267c0-9.426-7.641-17.067-17.067-17.067s-17.067,7.641-17.067,17.067v204.8H256V324.267    c0-9.426-7.641-17.067-17.067-17.067s-17.067,7.641-17.067,17.067v119.467h-34.133v-204.8c0-9.426-7.641-17.067-17.067-17.067    s-17.067,7.641-17.067,17.067V307.2h-34.133v-85.333c0-28.277,22.923-51.2,51.2-51.2H307.2c28.277,0,51.2,22.923,51.2,51.2V307.2z    ",
    "woman": "path://m307.074219 404.390625-114.140625-228.289063c22.878906-18.085937 37.585937-46.074218 37.585937-77.4375 0-54.402343-44.261719-98.664062-98.667969-98.664062-54.402343 0-98.664062 44.261719-98.664062 98.667969 0 31.359375 14.707031 59.347656 37.585938 77.433593l-114.140626 228.289063c-6.636718 13.269531 3.023438 28.941406 17.886719 28.941406h58.667969v58.667969c0 11.046875 8.953125 20 20 20h157.332031c11.046875 0 20-8.953125 20-20v-58.667969h58.667969c14.835938 0 24.535156-15.648437 17.886719-28.941406zm-175.222657-364.390625c32.351563 0 58.667969 26.316406 58.667969 58.667969 0 32.347656-26.316406 58.667969-58.667969 58.667969-32.347656 0-58.664062-26.320313-58.664062-58.667969 0-32.351563 26.316406-58.667969 58.664062-58.667969zm78.667969 353.332031c-11.046875 0-20 8.953125-20 20v58.667969h-117.332031v-58.667969c0-11.046875-8.953125-20-20-20h-46.304688l99.648438-199.300781c16.558594 4.402344 34.082031 4.402344 50.644531 0l99.648438 199.300781zm0 0",
    "oneman": "path://M437.02,330.98c-27.883-27.882-61.071-48.523-97.281-61.018C378.521,243.251,404,198.548,404,148    C404,66.393,337.607,0,256,0S108,66.393,108,148c0,50.548,25.479,95.251,64.262,121.962    c-36.21,12.495-69.398,33.136-97.281,61.018C26.629,379.333,0,443.62,0,512h40c0-119.103,96.897-216,216-216s216,96.897,216,216    h40C512,443.62,485.371,379.333,437.02,330.98z M256,256c-59.551,0-108-48.448-108-108S196.449,40,256,40    c59.551,0,108,48.448,108,108S315.551,256,256,256z",
    "manyman": "path://M437.1,233.45c14.8-10.4,24.6-27.7,24.6-47.2c0-31.9-25.8-57.7-57.7-57.7c-31.9,0-57.7,25.8-57.7,57.7    c0,19.5,9.7,36.8,24.6,47.2c-12.7,4.4-24.3,11.2-34.1,20c-13.5-11.5-29.4-20.3-46.8-25.5c21.1-12.8,35.3-36.1,35.3-62.6    c0-40.4-32.7-73.1-73.1-73.1c-40.4,0-73.1,32.8-73.1,73.1c0,26.5,14.1,49.8,35.3,62.6c-17.2,5.2-32.9,13.9-46.3,25.2    c-9.8-8.6-21.2-15.3-33.7-19.6c14.8-10.4,24.6-27.7,24.6-47.2c0-31.9-25.8-57.7-57.7-57.7s-57.7,25.8-57.7,57.7    c0,19.5,9.7,36.8,24.6,47.2C28.5,247.25,0,284.95,0,329.25v6.6c0,0.2,0.2,0.4,0.4,0.4h122.3c-0.7,5.5-1.1,11.2-1.1,16.9v6.8    c0,29.4,23.8,53.2,53.2,53.2h155c29.4,0,53.2-23.8,53.2-53.2v-6.8c0-5.7-0.4-11.4-1.1-16.9H505c0.2,0,0.4-0.2,0.4-0.4v-6.6    C505.2,284.85,476.8,247.15,437.1,233.45z M362.3,186.15c0-23,18.7-41.7,41.7-41.7s41.7,18.7,41.7,41.7    c0,22.7-18.3,41.2-40.9,41.7c-0.3,0-0.5,0-0.8,0s-0.5,0-0.8,0C380.5,227.45,362.3,208.95,362.3,186.15z M194.9,165.35    c0-31.5,25.6-57.1,57.1-57.1s57.1,25.6,57.1,57.1c0,30.4-23.9,55.3-53.8,57c-1.1,0-2.2,0-3.3,0c-1.1,0-2.2,0-3.3,0    C218.8,220.65,194.9,195.75,194.9,165.35z M59.3,186.15c0-23,18.7-41.7,41.7-41.7s41.7,18.7,41.7,41.7c0,22.7-18.3,41.2-40.9,41.7    c-0.3,0-0.5,0-0.8,0s-0.5,0-0.8,0C77.6,227.45,59.3,208.95,59.3,186.15z M125.5,320.15H16.2c4.5-42.6,40.5-76,84.2-76.3    c0.2,0,0.4,0,0.6,0s0.4,0,0.6,0c20.8,0.1,39.8,7.8,54.5,20.3C141.7,279.75,131,298.95,125.5,320.15z M366.8,359.95    c0,20.5-16.7,37.2-37.2,37.2h-155c-20.5,0-37.2-16.7-37.2-37.2v-6.8c0-62.1,49.6-112.9,111.3-114.7c1.1,0.1,2.3,0.1,3.4,0.1    s2.3,0,3.4-0.1c61.7,1.8,111.3,52.6,111.3,114.7V359.95z M378.7,320.15c-5.5-21.1-16-40-30.3-55.6c14.8-12.8,34-20.5,55-20.7    c0.2,0,0.4,0,0.6,0s0.4,0,0.6,0c43.7,0.3,79.7,33.7,84.2,76.3H378.7z"
  },
  "user_data": [
    {
      "name": "aaa",
      "gender": "M",
      "age": 40,
      "incentive": true,
      "newSalary": 4000,
      "oldSalary": 3400,
      "evaluation": "A",
      "duty": "기술",
      "occupations": "경영",
      "continuous_year": 2,
      "manager": true
    },
    {
      "name": "bbb",
      "gender": "W",
      "age": 22,
      "incentive": false,
      "newSalary": 3300,
      "oldSalary": 2500,
      "evaluation": "B",
      "duty": "기획",
      "occupations": "영업",
      "continuous_year": 7,
      "manager": true
    },
    {
      "name": "ccc",
      "gender": "M",
      "age": 20,
      "incentive": true,
      "newSalary": 3700,
      "oldSalary": 3400,
      "evaluation": "C",
      "duty": "디자인",
      "occupations": "생산",
      "continuous_year": 8,
      "manager": false
    },
    {
      "name": "ccc",
      "gender": "M",
      "age": 21,
      "incentive": true,
      "newSalary": 4300,
      "oldSalary": 4000,
      "evaluation": "D",
      "duty": "영업",
      "occupations": "전문",
      "continuous_year": 4,
      "manager": false
    },
    {
      "name": "ccc",
      "gender": "W",
      "age": 40,
      "incentive": true,
      "newSalary": 2500,
      "oldSalary": 2000,
      "evaluation": "E",
      "duty": "스탭",
      "occupations": "서비스",
      "continuous_year": 10,
      "manager": false
    },
    {
      "name": "ccc",
      "gender": "W",
      "age": 50,
      "incentive": true,
      "newSalary": 6000,
      "oldSalary": 5600,
      "evaluation": "A",
      "duty": "기술",
      "occupations": "경영",
      "continuous_year": 6,
      "manager": true
    },
    {
      "name": "ccc",
      "gender": "M",
      "age": 27,
      "incentive": true,
      "newSalary": 3000,
      "oldSalary": 2300,
      "evaluation": "A",
      "duty": "기술",
      "occupations": "경영",
      "continuous_year": 5,
      "manager": false
    },
    {
      "name": "ccc",
      "gender": "W",
      "age": 19,
      "incentive": false,
      "newSalary": 3000,
      "oldSalary": 2300,
      "evaluation": "A",
      "duty": "영업",
      "occupations": "서비스",
      "continuous_year": 9,
      "manager": false
    },
    {
      "name": "ccc",
      "gender": "M",
      "age": 23,
      "incentive": true,
      "newSalary": 3000,
      "oldSalary": 2300,
      "evaluation": "B",
      "duty": "영업",
      "occupations": "서비스",
      "continuous_year": 4,
      "manager": false
    },
    {
      "name": "ccc",
      "gender": "M",
      "age": 31,
      "incentive": false,
      "newSalary": 3800,
      "oldSalary": 3000,
      "evaluation": "B",
      "duty": "영업",
      "occupations": "영업",
      "continuous_year": 7,
      "manager": false
    }
  ],
  "year_data": [
    {
      "month": 1,
      "working_hours": 8,
      "out_working_hours": 2,
      "vacation_days": 865,
      "time_on_work": "2015-03-25T07:59:00",
      "time_off_work": "2015-03-25T16:14:00",
      "join_number": 76,
      "leave_number": 294
    },
    {
      "month": 2,
      "working_hours": 8,
      "out_working_hours": 1,
      "vacation_days": 725,
      "time_on_work": "2015-03-25T10:39:00",
      "time_off_work": "2015-03-25T19:12:00",
      "join_number": 112,
      "leave_number": 634
    },
    {
      "month": 3,
      "working_hours": 8.5,
      "out_working_hours": 5,
      "vacation_days": 327,
      "time_on_work": "2015-03-25T09:52:00",
      "time_off_work": "2015-03-25T17:17:00",
      "join_number": 856,
      "leave_number": 937
    },
    {
      "month": 4,
      "working_hours": 8,
      "out_working_hours": 3.1,
      "vacation_days": 912,
      "time_on_work": "2015-03-25T09:55:00",
      "time_off_work": "2015-03-25T19:06:00",
      "join_number": 121,
      "leave_number": 455
    },
    {
      "month": 5,
      "working_hours": 8.3,
      "out_working_hours": 4,
      "vacation_days": 70,
      "time_on_work": "2015-03-25T11:31:00",
      "time_off_work": "2015-03-25T16:31:00",
      "join_number": 993,
      "leave_number": 524
    },
    {
      "month": 6,
      "working_hours": 8,
      "out_working_hours": 2,
      "vacation_days": 520,
      "time_on_work": "2015-03-25T07:13:00",
      "time_off_work": "2015-03-25T18:50:00",
      "join_number": 975,
      "leave_number": 524
    },
    {
      "month": 7,
      "working_hours": 9.1,
      "out_working_hours": 1.8,
      "vacation_days": 813,
      "time_on_work": "2015-03-25T07:05:00",
      "time_off_work": "2015-03-25T19:35:00",
      "join_number": 995,
      "leave_number": 447
    },
    {
      "month": 8,
      "working_hours": 8,
      "out_working_hours": 2.4,
      "vacation_days": 159,
      "time_on_work": "2015-03-25T07:24:00",
      "time_off_work": "2015-03-25T19:55:00",
      "join_number": 351,
      "leave_number": 311
    },
    {
      "month": 9,
      "working_hours": 8,
      "out_working_hours": 3,
      "vacation_days": 572,
      "time_on_work": "2015-03-25T10:56:00",
      "time_off_work": "2015-03-25T16:34:00",
      "join_number": 306,
      "leave_number": 386
    },
    {
      "month": 10,
      "working_hours": 8,
      "out_working_hours": 2,
      "vacation_days": 415,
      "time_on_work": "2015-03-25T08:29:00",
      "time_off_work": "2015-03-25T19:33:00",
      "join_number": 654,
      "leave_number": 58
    },
    {
      "month": 11,
      "working_hours": 8,
      "out_working_hours": 0.1,
      "vacation_days": 434,
      "time_on_work": "2015-03-25T07:11:00",
      "time_off_work": "2015-03-25T16:33:00",
      "join_number": 384,
      "leave_number": 333
    },
    {
      "month": 12,
      "working_hours": 8,
      "out_working_hours": 3.3,
      "vacation_days": 541,
      "time_on_work": "2015-03-25T11:12:00",
      "time_off_work": "2015-03-25T15:38:00",
      "join_number": 55,
      "leave_number": 674
    }
  ]
}